а) х = 7 + 3 * б / 2 - 1; x = 15
         3   1   2   4

Ь) х = 2 % 2 + 2 * 2 - 2 / 2; x = 3
        1   4   2   5   3

с) х = ( 3 * 9 * ( 3 + ( 3 * 9 / ( 3 )))); x = 324
           5   6     4     2   3   1
